{
  "coc.preferences.useQuickfixForLocations": true,
  "coc.preferences.snippets.enable": true,
  "coc.preferences.extensionUpdateCheck": "never",
  "suggest.disableMenu": false,
  "suggest.snippetIndicator": "",
  "diagnostic.errorSign": "✘",
  "diagnostic.infoSign": "ℹ",
  "diagnostic.hintSign": "➤",
  "diagnostic.enableHighlightLineNumber": true,
  "suggest.autoTrigger": "none",
  "languageserver": {
    "go": {
      "command": "gopls",
      "rootPatterns": ["go.mod"],
      "trace.server": "verbose",
      "filetypes": ["go"]
    }
  }
}
